Project/src/picoversat/simulation/icarus/xtop.vcd
$date
	Mon Dec  2 17:00:57 2019
$end
$version
	Icarus Verilog
$end
$timescale
	1ps
$end
$scope module xtop_tb $end
$var wire 32 ! r0 [31:0] $end
$var wire 32 " r1 [31:0] $end
$var wire 32 # r10 [31:0] $end
$var wire 32 $ r11 [31:0] $end
$var wire 32 % r12 [31:0] $end
$var wire 32 & r13 [31:0] $end
$var wire 32 ' r14 [31:0] $end
$var wire 32 ( r15 [31:0] $end
$var wire 32 ) r2 [31:0] $end
$var wire 32 * r3 [31:0] $end
$var wire 32 + r4 [31:0] $end
$var wire 32 , r5 [31:0] $end
$var wire 32 - r6 [31:0] $end
$var wire 32 . r7 [31:0] $end
$var wire 32 / r8 [31:0] $end
$var wire 32 0 r9 [31:0] $end
$var wire 1 1 trap $end
$var reg 1 2 clk $end
$var reg 1 3 rst $end
$var integer 32 4 k [31:0] $end
$var integer 32 5 start_time [31:0] $end
$scope module uut $end
$var wire 1 2 clk $end
$var wire 1 3 rst $end
$var wire 8 6 sw [7:0] $end
$var wire 1 1 trap $end
$var wire 1 7 sw_sel $end
$var wire 1 8 snd_sel $end
$var wire 1 9 snd $end
$var wire 1 : regf_sel $end
$var wire 32 ; regf_data_to_rd [31:0] $end
$var wire 9 < pc [8:0] $end
$var wire 1 = mem_sel $end
$var wire 32 > mem_data_to_rd [31:0] $end
$var wire 1 ? loop_sel $end
$var wire 1 @ kbd_sel $end
$var wire 8 A kbd_bus [7:0] $end
$var wire 32 B instruction [31:0] $end
$var wire 1 C data_we $end
$var wire 32 D data_to_wr [31:0] $end
$var wire 32 E data_to_rd [31:0] $end
$var wire 1 F data_sel $end
$var wire 10 G data_addr [9:0] $end
$var wire 1 H cprt_sel $end
$var wire 8 I Leds [7:0] $end
$scope module addr_decoder $end
$var wire 1 F sel $end
$var wire 32 J regf_data_to_rd [31:0] $end
$var wire 32 K mem_data_to_rd [31:0] $end
$var wire 10 L addr [9:0] $end
$var reg 1 H cprt_sel $end
$var reg 32 M data_to_rd [31:0] $end
$var reg 1 @ kbd_sel $end
$var reg 1 = mem_sel $end
$var reg 1 : regf_sel $end
$var reg 1 ? sel_loop $end
$var reg 1 8 sel_snd $end
$var reg 1 7 sw_sel $end
$var reg 1 1 trap_sel $end
$upscope $end
$scope module controller $end
$var wire 1 N alu_arith_ops $end
$var wire 1 O alu_imm_ops $end
$var wire 1 P alu_logic_ops $end
$var wire 1 Q alu_mem_ops $end
$var wire 1 R alu_ops $end
$var wire 32 S and_res [31:0] $end
$var wire 1 T branch_ops $end
$var wire 1 2 clk $end
$var wire 1 U imm_ops $end
$var wire 1 V load_imm_ops $end
$var wire 1 W load_mem_ops $end
$var wire 1 X load_ops $end
$var wire 32 Y mem_data_from [31:0] $end
$var wire 32 Z mem_data_to [31:0] $end
$var wire 1 F mem_sel $end
$var wire 1 C mem_we $end
$var wire 1 3 rst $end
$var wire 1 [ store_mem_ops $end
$var wire 32 \ xor_res [31:0] $end
$var wire 4 ] opcode [3:0] $end
$var wire 32 ^ instruction [31:0] $end
$var wire 32 _ imm [31:0] $end
$var reg 32 ` adder_res [31:0] $end
$var reg 1 a alu_carry $end
$var reg 1 b alu_negative $end
$var reg 1 c alu_overflow $end
$var reg 32 d alu_result [31:0] $end
$var reg 1 e carry_res_n $end
$var reg 32 f carry_res_n_1 [31:0] $end
$var reg 10 g mem_addr [9:0] $end
$var reg 32 h operand [31:0] $end
$var reg 9 i pc [8:0] $end
$var reg 32 j regA [31:0] $end
$var reg 32 k regB [31:0] $end
$var reg 3 l regC [2:0] $end
$upscope $end
$scope module cprint $end
$var wire 1 2 clk $end
$var wire 8 m data_in [7:0] $end
$var wire 1 n sel $end
$upscope $end
$scope module ram $end
$var wire 1 2 clk $end
$var wire 9 o data_addr [8:0] $end
$var wire 9 p data_addr_int [8:0] $end
$var wire 1 q data_en_int $end
$var wire 32 r data_in [31:0] $end
$var wire 32 s data_in_int [31:0] $end
$var wire 32 t data_out [31:0] $end
$var wire 1 = data_sel $end
$var wire 1 C data_we $end
$var wire 1 u data_we_int $end
$var wire 1 v instr_en $end
$var wire 9 w pc [8:0] $end
$var reg 32 x data_out_int [31:0] $end
$var reg 32 y instruction [31:0] $end
$upscope $end
$scope module regf $end
$var wire 4 z addr [3:0] $end
$var wire 1 2 clk $end
$var wire 32 { data_in [31:0] $end
$var wire 1 : sel $end
$var wire 1 C we $end
$var wire 32 | data_out [31:0] $end
$upscope $end
$scope module xloop $end
$var wire 1 2 clk $end
$var wire 8 } freqin [7:0] $end
$var wire 8 ~ kbd_in [7:0] $end
$var wire 8 !" led_out [7:0] $end
$var wire 1 3 rst $end
$var wire 1 ? sel_loop $end
$var wire 1 8 sel_snd $end
$var wire 8 "" sndenreg [7:0] $end
$var wire 1 9 snd_out $end
$var reg 5 #" curr_sft [4:0] $end
$var reg 21 $" freq [20:0] $end
$var reg 28 %" loop_counter [27:0] $end
$var reg 8 &" scroll_out [7:0] $end
$var reg 28 '" snd_counter [27:0] $end
$var reg 1 (" snd_en $end
$var reg 28 )" snd_en_time [27:0] $end
$var reg 21 *" snd_freq_counter [20:0] $end
$var reg 1 +" snd_gen $end
$var reg 28 ," sweep [27:0] $end
$var reg 8 -" sweepreg [7:0] $end
$upscope $end
$scope module xpush $end
$var wire 1 2 clk $end
$var wire 1 7 sel $end
$var wire 4 ." sw_in [3:0] $end
$var reg 4 /" sw_out [3:0] $end
$upscope $end
$scope module xsw $end
$var wire 8 0" kbd_in [7:0] $end
$var wire 8 1" kbd_out [7:0] $end
$var wire 1 7 sel $end
$upscope $end
$upscope $end
$upscope $end
$enddefinitions $end
#0
$dumpvars
bz 1"
bz 0"
bx /"
b0z ."
bx -"
bx ,"
x+"
bx *"
bx )"
x("
bx '"
bx &"
bx %"
bx $"
bx #"
bx ""
bx !"
bz ~
bx }
bx |
bx {
bx z
bx y
bx x
bx w
1v
xu
bx t
bx s
bx r
xq
bx p
bx o
xn
bx m
bx l
bx k
bx j
bx i
bx h
bx g
bx f
xe
bx d
xc
xb
xa
bx `
bx _
bx ^
bx ]
bx \
x[
bx Z
bx Y
xX
xW
xV
xU
xT
bx S
xR
xQ
xP
xO
xN
bx M
bx L
bx K
bx J
bx I
xH
bx G
xF
bx E
bx D
xC
bx B
bz A
x@
x?
bx >
x=
bx <
bx ;
x:
x9
x8
x7
bz 6
bx 5
bx 4
03
12
x1
bx 0
bx /
bx .
bx -
bx ,
bx +
bx *
bx )
bx (
bx '
bx &
bx %
bx $
bx #
bx "
bx !
$end
#5000
02
#10000
12
#11000
b1011111010111100001000 )"
09
0c
0b
0a
b0 d
b0 `
0e
b0 f
b0 \
b0 S
b0 m
b0 }
b0 h
b1xxxxxxx I
b1xxxxxxx !"
b0 <
b0 i
b0 w
b0 s
b0 D
b0 Z
b0 r
b0 {
b0 j
b0 k
b0 l
b0 ""
b0 -"
b10000000 &"
b0 #"
b0 %"
0("
b0 '"
0+"
13
#15000
02
#20000
0F
b0 ;
b0 J
b0 |
b0 E
b0 M
b0 Y
b1 `
b1 f
b1 \
b1 z
b1 p
b1 o
01
0H
0:
0q
0=
b1 h
b1 G
b1 L
b1 g
0Q
0R
0n
1X
1U
b1 _
0T
0P
0N
0O
0u
0C
0[
0W
1V
b110 ]
b1100000000000000000000000000001 B
b1100000000000000000000000000001 ^
b1100000000000000000000000000001 y
12
#21000
b10000 4
b10101 5
03
#25000
02
#30000
b10 `
b10 f
b0 \
b1 S
b1 m
b1 }
b1 <
b1 i
b1 w
b1 s
b1 D
b1 Z
b1 r
b1 {
b1 j
b1 %"
b1 '"
12
#35000
02
#40000
1F
b1 `
b1 f
b1 \
b0 S
b1101 z
b1011101 p
b1011101 o
18
b0 h
b1001011101 G
b1001011101 L
b1001011101 g
0X
0U
b1001011101 _
1u
1C
1[
0V
b1001 ]
b10 '"
b10 %"
b10 <
b10 i
b10 w
b10010000000000000000001001011101 B
b10010000000000000000001001011101 ^
b10010000000000000000001001011101 y
12
#45000
02
#50000
b1100 z
b1011100 p
b1011100 o
1?
b1001011100 G
b1001011100 L
b1001011100 g
b1001011100 _
b11 <
b11 i
b11 w
b11 %"
b11 '"
b10100010110000101 $"
b10010000000000000000001001011100 B
b10010000000000000000001001011100 ^
b10010000000000000000001001011100 y
12
#55000
02
#60000
0F
b0 E
b0 M
b0 Y
b0 z
b0 p
b0 o
0q
0=
b1 d
1R
b0 G
b0 L
b0 g
1N
1U
b0 _
1O
0u
0C
0[
b0 ]
b100 '"
b100 %"
b100 <
b100 i
b100 w
b0 B
b0 ^
b0 y
b11011001111110111001001 ,"
12
#65000
02
#70000
b101 <
b101 i
b101 w
b101 %"
b101 '"
12
#75000
02
#80000
b110 '"
b110 %"
b110 <
b110 i
b110 w
12
#85000
02
#90000
b111 <
b111 i
b111 w
b111 %"
b111 '"
12
#95000
02
#100000
b1000 '"
b1000 %"
b1000 <
b1000 i
b1000 w
12
#105000
02
#110000
b1001 <
b1001 i
b1001 w
b1001 %"
b1001 '"
12
#115000
02
#120000
b1010 '"
b1010 %"
b1010 <
b1010 i
b1010 w
12
#125000
02
#130000
b1011 <
b1011 i
b1011 w
b1011 %"
b1011 '"
12
#135000
02
#140000
b1100 '"
b1100 %"
b1100 <
b1100 i
b1100 w
12
#145000
02
#150000
b1101 <
b1101 i
b1101 w
b1101 %"
b1101 '"
12
#155000
02
#160000
b1110 '"
b1110 %"
b1110 <
b1110 i
b1110 w
12
#165000
02
#170000
b1111 <
b1111 i
b1111 w
b1111 %"
b1111 '"
12
#175000
02
#180000
b10000 '"
b10000 %"
b10000 <
b10000 i
b10000 w
12
#185000
02
#190000
b10001 <
b10001 i
b10001 w
b10001 %"
b10001 '"
12
#195000
02
#200000
b10010 '"
b10010 %"
b10010 <
b10010 i
b10010 w
12
#205000
02
#210000
b10011 <
b10011 i
b10011 w
b10011 %"
b10011 '"
12
#215000
02
#220000
b10100 '"
b10100 %"
b10100 <
b10100 i
b10100 w
12
#225000
02
#230000
b10101 <
b10101 i
b10101 w
b10101 %"
b10101 '"
12
#235000
02
#240000
b10110 '"
b10110 %"
b10110 <
b10110 i
b10110 w
12
#245000
02
#250000
b10111 <
b10111 i
b10111 w
b10111 %"
b10111 '"
12
#255000
02
#260000
b11000 '"
b11000 %"
b11000 <
b11000 i
b11000 w
12
#265000
02
#270000
b11001 <
b11001 i
b11001 w
b11001 %"
b11001 '"
12
#275000
02
#280000
b11010 '"
b11010 %"
b11010 <
b11010 i
b11010 w
12
#285000
02
#290000
b11011 <
b11011 i
b11011 w
b11011 %"
b11011 '"
12
#295000
02
#300000
b11100 '"
b11100 %"
b11100 <
b11100 i
b11100 w
12
#305000
02
#310000
b11101 <
b11101 i
b11101 w
b11101 %"
b11101 '"
12
#315000
02
#320000
b11110 '"
b11110 %"
b11110 <
b11110 i
b11110 w
12
#325000
02
#330000
b11111 <
b11111 i
b11111 w
b11111 %"
b11111 '"
12
#335000
02
#340000
b100000 '"
b100000 %"
b100000 <
b100000 i
b100000 w
12
#345000
02
#350000
b100001 <
b100001 i
b100001 w
b100001 %"
b100001 '"
12
#355000
02
#360000
b100010 '"
b100010 %"
b100010 <
b100010 i
b100010 w
12
#365000
02
#370000
b100011 <
b100011 i
b100011 w
b100011 %"
b100011 '"
12
#375000
02
#380000
b100100 '"
b100100 %"
b100100 <
b100100 i
b100100 w
12
#385000
02
#390000
b100101 <
b100101 i
b100101 w
b100101 %"
b100101 '"
12
#395000
02
#400000
b100110 '"
b100110 %"
b100110 <
b100110 i
b100110 w
12
#405000
02
#410000
b100111 <
b100111 i
b100111 w
b100111 %"
b100111 '"
12
#415000
02
#420000
b101000 '"
b101000 %"
b101000 <
b101000 i
b101000 w
12
#425000
02
#430000
b101001 <
b101001 i
b101001 w
b101001 %"
b101001 '"
12
#435000
02
#440000
b101010 '"
b101010 %"
b101010 <
b101010 i
b101010 w
12
#445000
02
#450000
b101011 <
b101011 i
b101011 w
b101011 %"
b101011 '"
12
#455000
02
#460000
b101100 '"
b101100 %"
b101100 <
b101100 i
b101100 w
12
#465000
02
#470000
b101101 <
b101101 i
b101101 w
b101101 %"
b101101 '"
12
#475000
02
#480000
b101110 '"
b101110 %"
b101110 <
b101110 i
b101110 w
12
#485000
02
#490000
b101111 <
b101111 i
b101111 w
b101111 %"
b101111 '"
12
#495000
02
#500000
b110000 '"
b110000 %"
b110000 <
b110000 i
b110000 w
12
#505000
02
#510000
b110001 <
b110001 i
b110001 w
b110001 %"
b110001 '"
12
#515000
02
#520000
b110010 '"
b110010 %"
b110010 <
b110010 i
b110010 w
12
#525000
02
#530000
b110011 <
b110011 i
b110011 w
b110011 %"
b110011 '"
12
#535000
02
#540000
b110100 '"
b110100 %"
b110100 <
b110100 i
b110100 w
12
#545000
02
#550000
b110101 <
b110101 i
b110101 w
b110101 %"
b110101 '"
12
#555000
02
#560000
b110110 '"
b110110 %"
b110110 <
b110110 i
b110110 w
12
#565000
02
#570000
b110111 <
b110111 i
b110111 w
b110111 %"
b110111 '"
12
#575000
02
#580000
b111000 '"
b111000 %"
b111000 <
b111000 i
b111000 w
12
#585000
02
#590000
b111001 <
b111001 i
b111001 w
b111001 %"
b111001 '"
12
#595000
02
#600000
b111010 '"
b111010 %"
b111010 <
b111010 i
b111010 w
12
#605000
02
#610000
b111011 <
b111011 i
b111011 w
b111011 %"
b111011 '"
12
#615000
02
#620000
b111100 '"
b111100 %"
b111100 <
b111100 i
b111100 w
12
#625000
02
#630000
b111101 <
b111101 i
b111101 w
b111101 %"
b111101 '"
12
#635000
02
#640000
b111110 '"
b111110 %"
b111110 <
b111110 i
b111110 w
12
#645000
02
#650000
b111111 <
b111111 i
b111111 w
b111111 %"
b111111 '"
12
#655000
02
#660000
b1000000 '"
b1000000 %"
b1000000 <
b1000000 i
b1000000 w
12
#665000
02
#670000
b1000001 <
b1000001 i
b1000001 w
b1000001 %"
b1000001 '"
12
#675000
02
#680000
b1000010 '"
b1000010 %"
b1000010 <
b1000010 i
b1000010 w
12
#685000
02
#690000
b1000011 <
b1000011 i
b1000011 w
b1000011 %"
b1000011 '"
12
#695000
02
#700000
b1000100 '"
b1000100 %"
b1000100 <
b1000100 i
b1000100 w
12
#705000
02
#710000
b1000101 <
b1000101 i
b1000101 w
b1000101 %"
b1000101 '"
12
#715000
02
#720000
b1000110 '"
b1000110 %"
b1000110 <
b1000110 i
b1000110 w
12
#725000
02
#730000
b1000111 <
b1000111 i
b1000111 w
b1000111 %"
b1000111 '"
12
#735000
02
#740000
b1001000 '"
b1001000 %"
b1001000 <
b1001000 i
b1001000 w
12
#745000
02
#750000
b1001001 <
b1001001 i
b1001001 w
b1001001 %"
b1001001 '"
12
#755000
02
#760000
b1001010 '"
b1001010 %"
b1001010 <
b1001010 i
b1001010 w
12
#765000
02
#770000
b1001011 <
b1001011 i
b1001011 w
b1001011 %"
b1001011 '"
12
#775000
02
#780000
b1001100 '"
b1001100 %"
b1001100 <
b1001100 i
b1001100 w
12
#785000
02
#790000
b1001101 <
b1001101 i
b1001101 w
b1001101 %"
b1001101 '"
12
#795000
02
#800000
b1001110 '"
b1001110 %"
b1001110 <
b1001110 i
b1001110 w
12
#805000
02
#810000
b1001111 <
b1001111 i
b1001111 w
b1001111 %"
b1001111 '"
12
#815000
02
#820000
b1010000 '"
b1010000 %"
b1010000 <
b1010000 i
b1010000 w
12
#825000
02
#830000
b1010001 <
b1010001 i
b1010001 w
b1010001 %"
b1010001 '"
12
#835000
02
#840000
b1010010 '"
b1010010 %"
b1010010 <
b1010010 i
b1010010 w
12
#845000
02
#850000
b1010011 <
b1010011 i
b1010011 w
b1010011 %"
b1010011 '"
12
#855000
02
#860000
b1010100 '"
b1010100 %"
b1010100 <
b1010100 i
b1010100 w
12
#865000
02
#870000
b1010101 <
b1010101 i
b1010101 w
b1010101 %"
b1010101 '"
12
#875000
02
#880000
b1010110 '"
b1010110 %"
b1010110 <
b1010110 i
b1010110 w
12
#885000
02
#890000
b1010111 <
b1010111 i
b1010111 w
b1010111 %"
b1010111 '"
12
#895000
02
#900000
b1011000 '"
b1011000 %"
b1011000 <
b1011000 i
b1011000 w
12
#905000
02
#910000
b1011001 <
b1011001 i
b1011001 w
b1011001 %"
b1011001 '"
12
#915000
02
#920000
b1011010 '"
b1011010 %"
b1011010 <
b1011010 i
b1011010 w
12
#925000
02
#930000
b1011011 <
b1011011 i
b1011011 w
b1011011 %"
b1011011 '"
12
#935000
02
#940000
b1011100 '"
b1011100 %"
b1011100 <
b1011100 i
b1011100 w
12
#945000
02
#950000
b1011101 <
b1011101 i
b1011101 w
b1011101 %"
b1011101 '"
12
#955000
02
#960000
b1011110 '"
b1011110 %"
b1011110 <
b1011110 i
b1011110 w
12
#965000
02
#970000
b1011111 <
b1011111 i
b1011111 w
b1011111 %"
b1011111 '"
12
#975000
02
#980000
b1100000 '"
b1100000 %"
b1100000 <
b1100000 i
b1100000 w
12
#985000
02
#990000
b1100001 <
b1100001 i
b1100001 w
b1100001 %"
b1100001 '"
12
#995000
02
#1000000
b1100010 '"
b1100010 %"
b1100010 <
b1100010 i
b1100010 w
12
#1005000
02
#1010000
b1100011 <
b1100011 i
b1100011 w
b1100011 %"
b1100011 '"
12
#1015000
02
#1020000
b1100100 '"
b1100100 %"
b1100100 <
b1100100 i
b1100100 w
12
#1025000
02
#1030000
b1100101 <
b1100101 i
b1100101 w
b1100101 %"
b1100101 '"
12
#1035000
02
#1040000
b1100110 '"
b1100110 %"
b1100110 <
b1100110 i
b1100110 w
12
#1045000
02
#1050000
b1100111 <
b1100111 i
b1100111 w
b1100111 %"
b1100111 '"
12
#1055000
02
#1060000
b1101000 '"
b1101000 %"
b1101000 <
b1101000 i
b1101000 w
12
#1065000
02
#1070000
b1101001 <
b1101001 i
b1101001 w
b1101001 %"
b1101001 '"
12
#1075000
02
#1080000
b1101010 '"
b1101010 %"
b1101010 <
b1101010 i
b1101010 w
12
#1085000
02
#1090000
b1101011 <
b1101011 i
b1101011 w
b1101011 %"
b1101011 '"
12
#1095000
02
#1100000
b1101100 '"
b1101100 %"
b1101100 <
b1101100 i
b1101100 w
12
#1105000
02
#1110000
b1101101 <
b1101101 i
b1101101 w
b1101101 %"
b1101101 '"
12
#1115000
02
#1120000
b1101110 '"
b1101110 %"
b1101110 <
b1101110 i
b1101110 w
12
#1125000
02
#1130000
b1101111 <
b1101111 i
b1101111 w
b1101111 %"
b1101111 '"
12
#1135000
02
#1140000
b1110000 '"
b1110000 %"
b1110000 <
b1110000 i
b1110000 w
12
#1145000
02
#1150000
b1110001 <
b1110001 i
b1110001 w
b1110001 %"
b1110001 '"
12
#1155000
02
#1160000
b1110010 '"
b1110010 %"
b1110010 <
b1110010 i
b1110010 w
12
#1165000
02
#1170000
b1110011 <
b1110011 i
b1110011 w
b1110011 %"
b1110011 '"
12
#1175000
02
#1180000
b1110100 '"
b1110100 %"
b1110100 <
b1110100 i
b1110100 w
12
#1185000
02
#1190000
b1110101 <
b1110101 i
b1110101 w
b1110101 %"
b1110101 '"
12
#1195000
02
#1200000
b1110110 '"
b1110110 %"
b1110110 <
b1110110 i
b1110110 w
12
#1205000
02
#1210000
b1110111 <
b1110111 i
b1110111 w
b1110111 %"
b1110111 '"
12
#1215000
02
#1220000
b1111000 '"
b1111000 %"
b1111000 <
b1111000 i
b1111000 w
12
#1225000
02
#1230000
b1111001 <
b1111001 i
b1111001 w
b1111001 %"
b1111001 '"
12
#1235000
02
#1240000
b1111010 '"
b1111010 %"
b1111010 <
b1111010 i
b1111010 w
12
#1245000
02
#1250000
b1111011 <
b1111011 i
b1111011 w
b1111011 %"
b1111011 '"
12
#1255000
02
#1260000
b1111100 '"
b1111100 %"
b1111100 <
b1111100 i
b1111100 w
12
#1265000
02
#1270000
b1111101 <
b1111101 i
b1111101 w
b1111101 %"
b1111101 '"
12
#1275000
02
#1280000
b1111110 '"
b1111110 %"
b1111110 <
b1111110 i
b1111110 w
12
#1285000
02
#1290000
b1111111 <
b1111111 i
b1111111 w
b1111111 %"
b1111111 '"
12
#1295000
02
#1300000
b10000000 '"
b10000000 %"
b10000000 <
b10000000 i
b10000000 w
12
#1305000
02
#1310000
b10000001 <
b10000001 i
b10000001 w
b10000001 %"
b10000001 '"
12
#1315000
02
#1320000
b10000010 '"
b10000010 %"
b10000010 <
b10000010 i
b10000010 w
12
#1325000
02
#1330000
b10000011 <
b10000011 i
b10000011 w
b10000011 %"
b10000011 '"
12
#1335000
02
#1340000
b10000100 '"
b10000100 %"
b10000100 <
b10000100 i
b10000100 w
12
#1345000
02
#1350000
b10000101 <
b10000101 i
b10000101 w
b10000101 %"
b10000101 '"
12
#1355000
02
#1360000
b10000110 '"
b10000110 %"
b10000110 <
b10000110 i
b10000110 w
12
#1365000
02
#1370000
b10000111 <
b10000111 i
b10000111 w
b10000111 %"
b10000111 '"
12
#1375000
02
#1380000
b10001000 '"
b10001000 %"
b10001000 <
b10001000 i
b10001000 w
12
#1385000
02
#1390000
b10001001 <
b10001001 i
b10001001 w
b10001001 %"
b10001001 '"
12
#1395000
02
#1400000
b10001010 '"
b10001010 %"
b10001010 <
b10001010 i
b10001010 w
12
#1405000
02
#1410000
b10001011 <
b10001011 i
b10001011 w
b10001011 %"
b10001011 '"
12
#1415000
02
#1420000
b10001100 '"
b10001100 %"
b10001100 <
b10001100 i
b10001100 w
12
#1425000
02
#1430000
b10001101 <
b10001101 i
b10001101 w
b10001101 %"
b10001101 '"
12
#1435000
02
#1440000
b10001110 '"
b10001110 %"
b10001110 <
b10001110 i
b10001110 w
12
#1445000
02
#1450000
b10001111 <
b10001111 i
b10001111 w
b10001111 %"
b10001111 '"
12
#1455000
02
#1460000
b10010000 '"
b10010000 %"
b10010000 <
b10010000 i
b10010000 w
12
#1465000
02
#1470000
b10010001 <
b10010001 i
b10010001 w
b10010001 %"
b10010001 '"
12
#1475000
02
#1480000
b10010010 '"
b10010010 %"
b10010010 <
b10010010 i
b10010010 w
12
#1485000
02
#1490000
b10010011 <
b10010011 i
b10010011 w
b10010011 %"
b10010011 '"
12
#1495000
02
#1500000
b10010100 '"
b10010100 %"
b10010100 <
b10010100 i
b10010100 w
12
#1505000
02
#1510000
b10010101 <
b10010101 i
b10010101 w
b10010101 %"
b10010101 '"
12
#1515000
02
#1520000
b10010110 '"
b10010110 %"
b10010110 <
b10010110 i
b10010110 w
12
#1525000
02
#1530000
b10010111 <
b10010111 i
b10010111 w
b10010111 %"
b10010111 '"
12
#1535000
02
#1540000
b10011000 '"
b10011000 %"
b10011000 <
b10011000 i
b10011000 w
12
#1545000
02
#1550000
b10011001 <
b10011001 i
b10011001 w
b10011001 %"
b10011001 '"
12
#1555000
02
#1560000
b10011010 '"
b10011010 %"
b10011010 <
b10011010 i
b10011010 w
12
#1565000
02
#1570000
b10011011 <
b10011011 i
b10011011 w
b10011011 %"
b10011011 '"
12
#1575000
02
#1580000
b10011100 '"
b10011100 %"
b10011100 <
b10011100 i
b10011100 w
12
#1585000
02
#1590000
b10011101 <
b10011101 i
b10011101 w
b10011101 %"
b10011101 '"
12
#1595000
02
#1600000
b10011110 '"
b10011110 %"
b10011110 <
b10011110 i
b10011110 w
12
#1605000
02
#1610000
b10011111 <
b10011111 i
b10011111 w
b10011111 %"
b10011111 '"
12
#1615000
02
#1620000
b10100000 '"
b10100000 %"
b10100000 <
b10100000 i
b10100000 w
12
#1625000
02
#1630000
b10100001 <
b10100001 i
b10100001 w
b10100001 %"
b10100001 '"
12
#1635000
02
#1640000
b10100010 '"
b10100010 %"
b10100010 <
b10100010 i
b10100010 w
12
#1645000
02
#1650000
b10100011 <
b10100011 i
b10100011 w
b10100011 %"
b10100011 '"
12
#1655000
02
#1660000
b10100100 '"
b10100100 %"
b10100100 <
b10100100 i
b10100100 w
12
#1665000
02
#1670000
b10100101 <
b10100101 i
b10100101 w
b10100101 %"
b10100101 '"
12
#1675000
02
#1680000
b10100110 '"
b10100110 %"
b10100110 <
b10100110 i
b10100110 w
12
#1685000
02
#1690000
b10100111 <
b10100111 i
b10100111 w
b10100111 %"
b10100111 '"
12
#1695000
02
#1700000
b10101000 '"
b10101000 %"
b10101000 <
b10101000 i
b10101000 w
12
#1705000
02
#1710000
b10101001 <
b10101001 i
b10101001 w
b10101001 %"
b10101001 '"
12
#1715000
02
#1720000
b10101010 '"
b10101010 %"
b10101010 <
b10101010 i
b10101010 w
12
#1725000
02
#1730000
b10101011 <
b10101011 i
b10101011 w
b10101011 %"
b10101011 '"
12
#1735000
02
#1740000
b10101100 '"
b10101100 %"
b10101100 <
b10101100 i
b10101100 w
12
#1745000
02
#1750000
b10101101 <
b10101101 i
b10101101 w
b10101101 %"
b10101101 '"
12
#1755000
02
#1760000
b10101110 '"
b10101110 %"
b10101110 <
b10101110 i
b10101110 w
12
#1765000
02
#1770000
b10101111 <
b10101111 i
b10101111 w
b10101111 %"
b10101111 '"
12
#1775000
02
#1780000
b10110000 '"
b10110000 %"
b10110000 <
b10110000 i
b10110000 w
12
#1785000
02
#1790000
b10110001 <
b10110001 i
b10110001 w
b10110001 %"
b10110001 '"
12
#1795000
02
#1800000
b10110010 '"
b10110010 %"
b10110010 <
b10110010 i
b10110010 w
12
#1805000
02
#1810000
b10110011 <
b10110011 i
b10110011 w
b10110011 %"
b10110011 '"
12
#1815000
02
#1820000
b10110100 '"
b10110100 %"
b10110100 <
b10110100 i
b10110100 w
12
#1825000
02
#1830000
b10110101 <
b10110101 i
b10110101 w
b10110101 %"
b10110101 '"
12
#1835000
02
#1840000
b10110110 '"
b10110110 %"
b10110110 <
b10110110 i
b10110110 w
12
#1845000
02
#1850000
b10110111 <
b10110111 i
b10110111 w
b10110111 %"
b10110111 '"
12
#1855000
02
#1860000
b10111000 '"
b10111000 %"
b10111000 <
b10111000 i
b10111000 w
12
#1865000
02
#1870000
b10111001 <
b10111001 i
b10111001 w
b10111001 %"
b10111001 '"
12
#1875000
02
#1880000
b10111010 '"
b10111010 %"
b10111010 <
b10111010 i
b10111010 w
12
#1885000
02
#1890000
b10111011 <
b10111011 i
b10111011 w
b10111011 %"
b10111011 '"
12
#1895000
02
#1900000
b10111100 '"
b10111100 %"
b10111100 <
b10111100 i
b10111100 w
12
#1905000
02
#1910000
b10111101 <
b10111101 i
b10111101 w
b10111101 %"
b10111101 '"
12
#1915000
02
#1920000
b10111110 '"
b10111110 %"
b10111110 <
b10111110 i
b10111110 w
12
#1925000
02
#1930000
b10111111 <
b10111111 i
b10111111 w
b10111111 %"
b10111111 '"
12
#1935000
02
#1940000
b11000000 '"
b11000000 %"
b11000000 <
b11000000 i
b11000000 w
12
#1945000
02
#1950000
b11000001 <
b11000001 i
b11000001 w
b11000001 %"
b11000001 '"
12
#1955000
02
#1960000
b11000010 '"
b11000010 %"
b11000010 <
b11000010 i
b11000010 w
12
#1965000
02
#1970000
b11000011 <
b11000011 i
b11000011 w
b11000011 %"
b11000011 '"
12
#1975000
02
#1980000
b11000100 '"
b11000100 %"
b11000100 <
b11000100 i
b11000100 w
12
#1985000
02
#1990000
b11000101 <
b11000101 i
b11000101 w
b11000101 %"
b11000101 '"
12
#1995000
02
#2000000
b11000110 '"
b11000110 %"
b11000110 <
b11000110 i
b11000110 w
12
#2005000
02
#2010000
b11000111 <
b11000111 i
b11000111 w
b11000111 %"
b11000111 '"
12
#2015000
02
#2020000
b11001000 '"
b11001000 %"
b11001000 <
b11001000 i
b11001000 w
12
#2025000
02
#2030000
b11001001 <
b11001001 i
b11001001 w
b11001001 %"
b11001001 '"
12
#2035000
02
#2040000
b11001010 '"
b11001010 %"
b11001010 <
b11001010 i
b11001010 w
12
#2045000
02
#2050000
b11001011 <
b11001011 i
b11001011 w
b11001011 %"
b11001011 '"
12
#2055000
02
#2060000
b11001100 '"
b11001100 %"
b11001100 <
b11001100 i
b11001100 w
12
#2065000
02
#2070000
b11001101 <
b11001101 i
b11001101 w
b11001101 %"
b11001101 '"
12
#2075000
02
#2080000
b11001110 '"
b11001110 %"
b11001110 <
b11001110 i
b11001110 w
12
#2085000
02
#2090000
b11001111 <
b11001111 i
b11001111 w
b11001111 %"
b11001111 '"
12
#2095000
02
#2100000
b11010000 '"
b11010000 %"
b11010000 <
b11010000 i
b11010000 w
12
#2105000
02
#2110000
b11010001 <
b11010001 i
b11010001 w
b11010001 %"
b11010001 '"
12
#2115000
02
#2120000
b11010010 '"
b11010010 %"
b11010010 <
b11010010 i
b11010010 w
12
#2125000
02
#2130000
b11010011 <
b11010011 i
b11010011 w
b11010011 %"
b11010011 '"
12
#2135000
02
#2140000
b11010100 '"
b11010100 %"
b11010100 <
b11010100 i
b11010100 w
12
#2145000
02
#2150000
b11010101 <
b11010101 i
b11010101 w
b11010101 %"
b11010101 '"
12
#2155000
02
#2160000
b11010110 '"
b11010110 %"
b11010110 <
b11010110 i
b11010110 w
12
#2165000
02
#2170000
b11010111 <
b11010111 i
b11010111 w
b11010111 %"
b11010111 '"
12
#2175000
02
#2180000
b11011000 '"
b11011000 %"
b11011000 <
b11011000 i
b11011000 w
12
#2185000
02
#2190000
b11011001 <
b11011001 i
b11011001 w
b11011001 %"
b11011001 '"
12
#2195000
02
#2200000
b11011010 '"
b11011010 %"
b11011010 <
b11011010 i
b11011010 w
12
#2205000
02
#2210000
b11011011 <
b11011011 i
b11011011 w
b11011011 %"
b11011011 '"
12
#2215000
02
#2220000
b11011100 '"
b11011100 %"
b11011100 <
b11011100 i
b11011100 w
12
#2225000
02
#2230000
b11011101 <
b11011101 i
b11011101 w
b11011101 %"
b11011101 '"
12
#2235000
02
#2240000
b11011110 '"
b11011110 %"
b11011110 <
b11011110 i
b11011110 w
12
#2245000
02
