Project/src/picoversat/simulation/icarus/xtop.vcd
$date
	Thu Dec  5 14:36:44 2019
$end
$version
	Icarus Verilog
$end
$timescale
	1ps
$end
$scope module xtop_tb $end
$var wire 32 ! r0 [31:0] $end
$var wire 32 " r1 [31:0] $end
$var wire 32 # r10 [31:0] $end
$var wire 32 $ r11 [31:0] $end
$var wire 32 % r12 [31:0] $end
$var wire 32 & r13 [31:0] $end
$var wire 32 ' r14 [31:0] $end
$var wire 32 ( r15 [31:0] $end
$var wire 32 ) r2 [31:0] $end
$var wire 32 * r3 [31:0] $end
$var wire 32 + r4 [31:0] $end
$var wire 32 , r5 [31:0] $end
$var wire 32 - r6 [31:0] $end
$var wire 32 . r7 [31:0] $end
$var wire 32 / r8 [31:0] $end
$var wire 32 0 r9 [31:0] $end
$var wire 1 1 trap $end
$var reg 1 2 clk $end
$var reg 1 3 rst $end
$var integer 32 4 k [31:0] $end
$var integer 32 5 start_time [31:0] $end
$scope module uut $end
$var wire 1 2 clk $end
$var wire 1 3 rst $end
$var wire 8 6 sw [7:0] $end
$var wire 1 1 trap $end
$var wire 1 7 sw_sel $end
$var wire 1 8 snd_sel $end
$var wire 1 9 snd $end
$var wire 1 : regf_sel $end
$var wire 32 ; regf_data_to_rd [31:0] $end
$var wire 9 < pc [8:0] $end
$var wire 1 = mem_sel $end
$var wire 32 > mem_data_to_rd [31:0] $end
$var wire 1 ? loop_sel $end
$var wire 1 @ kbd_sel $end
$var wire 8 A kbd_bus [7:0] $end
$var wire 32 B instruction [31:0] $end
$var wire 1 C data_we $end
$var wire 32 D data_to_wr [31:0] $end
$var wire 32 E data_to_rd [31:0] $end
$var wire 1 F data_sel $end
$var wire 10 G data_addr [9:0] $end
$var wire 1 H cprt_sel $end
$var wire 8 I Leds [7:0] $end
$scope module addr_decoder $end
$var wire 1 F sel $end
$var wire 32 J regf_data_to_rd [31:0] $end
$var wire 32 K mem_data_to_rd [31:0] $end
$var wire 10 L addr [9:0] $end
$var reg 1 H cprt_sel $end
$var reg 32 M data_to_rd [31:0] $end
$var reg 1 @ kbd_sel $end
$var reg 1 = mem_sel $end
$var reg 1 : regf_sel $end
$var reg 1 ? sel_loop $end
$var reg 1 8 sel_snd $end
$var reg 1 7 sw_sel $end
$var reg 1 1 trap_sel $end
$upscope $end
$scope module controller $end
$var wire 1 N alu_arith_ops $end
$var wire 1 O alu_imm_ops $end
$var wire 1 P alu_logic_ops $end
$var wire 1 Q alu_mem_ops $end
$var wire 1 R alu_ops $end
$var wire 32 S and_res [31:0] $end
$var wire 1 T branch_ops $end
$var wire 1 2 clk $end
$var wire 1 U imm_ops $end
$var wire 1 V load_imm_ops $end
$var wire 1 W load_mem_ops $end
$var wire 1 X load_ops $end
$var wire 32 Y mem_data_from [31:0] $end
$var wire 32 Z mem_data_to [31:0] $end
$var wire 1 F mem_sel $end
$var wire 1 C mem_we $end
$var wire 1 3 rst $end
$var wire 1 [ store_mem_ops $end
$var wire 32 \ xor_res [31:0] $end
$var wire 4 ] opcode [3:0] $end
$var wire 32 ^ instruction [31:0] $end
$var wire 32 _ imm [31:0] $end
$var reg 32 ` adder_res [31:0] $end
$var reg 1 a alu_carry $end
$var reg 1 b alu_negative $end
$var reg 1 c alu_overflow $end
$var reg 32 d alu_result [31:0] $end
$var reg 1 e carry_res_n $end
$var reg 32 f carry_res_n_1 [31:0] $end
$var reg 10 g mem_addr [9:0] $end
$var reg 32 h operand [31:0] $end
$var reg 9 i pc [8:0] $end
$var reg 32 j regA [31:0] $end
$var reg 32 k regB [31:0] $end
$var reg 3 l regC [2:0] $end
$upscope $end
$scope module cprint $end
$var wire 1 2 clk $end
$var wire 8 m data_in [7:0] $end
$var wire 1 n sel $end
$upscope $end
$scope module ram $end
$var wire 1 2 clk $end
$var wire 9 o data_addr [8:0] $end
$var wire 9 p data_addr_int [8:0] $end
$var wire 1 q data_en_int $end
$var wire 32 r data_in [31:0] $end
$var wire 32 s data_in_int [31:0] $end
$var wire 32 t data_out [31:0] $end
$var wire 1 = data_sel $end
$var wire 1 C data_we $end
$var wire 1 u data_we_int $end
$var wire 1 v instr_en $end
$var wire 9 w pc [8:0] $end
$var reg 32 x data_out_int [31:0] $end
$var reg 32 y instruction [31:0] $end
$upscope $end
$scope module regf $end
$var wire 4 z addr [3:0] $end
$var wire 1 2 clk $end
$var wire 32 { data_in [31:0] $end
$var wire 1 : sel $end
$var wire 1 C we $end
$var wire 32 | data_out [31:0] $end
$upscope $end
$scope module xloop $end
$var wire 1 2 clk $end
$var wire 8 } freqin [7:0] $end
$var wire 8 ~ kbd_in [7:0] $end
$var wire 8 !" led_out [7:0] $end
$var wire 1 3 rst $end
$var wire 1 ? sel_loop $end
$var wire 1 8 sel_snd $end
$var wire 8 "" sndenreg [7:0] $end
$var wire 1 9 snd_out $end
$var reg 5 #" curr_sft [4:0] $end
$var reg 21 $" freq [20:0] $end
$var reg 28 %" loop_counter [27:0] $end
$var reg 8 &" scroll_out [7:0] $end
$var reg 28 '" snd_counter [27:0] $end
$var reg 1 (" snd_en $end
$var reg 28 )" snd_en_time [27:0] $end
$var reg 21 *" snd_freq_counter [20:0] $end
$var reg 1 +" snd_gen $end
$var reg 28 ," sweep [27:0] $end
$var reg 8 -" sweepreg [7:0] $end
$upscope $end
$scope module xpush $end
$var wire 1 2 clk $end
$var wire 1 7 sel $end
$var wire 4 ." sw_in [3:0] $end
$var reg 4 /" sw_out [3:0] $end
$upscope $end
$scope module xsw $end
$var wire 8 0" kbd_in [7:0] $end
$var wire 8 1" kbd_out [7:0] $end
$var wire 1 7 sel $end
$upscope $end
$upscope $end
$upscope $end
$enddefinitions $end
#0
$dumpvars
bz 1"
bz 0"
bx /"
b0z ."
bx -"
bx ,"
x+"
bx *"
bx )"
x("
bx '"
bx &"
bx %"
bx $"
bx #"
bx ""
bx !"
bz ~
bx }
bx |
bx {
bx z
bx y
bx x
bx w
1v
xu
bx t
bx s
bx r
xq
bx p
bx o
xn
bx m
bx l
bx k
bx j
bx i
bx h
bx g
bx f
xe
bx d
xc
xb
xa
bx `
bx _
bx ^
bx ]
bx \
x[
bx Z
bx Y
xX
xW
xV
xU
xT
bx S
xR
xQ
xP
xO
xN
bx M
bx L
bx K
bx J
bx I
xH
bx G
xF
bx E
bx D
xC
bx B
bz A
x@
x?
bx >
x=
bx <
bx ;
x:
x9
x8
x7
bz 6
bx 5
bx 4
03
12
x1
bx 0
bx /
bx .
bx -
bx ,
bx +
bx *
bx )
bx (
bx '
bx &
bx %
bx $
bx #
bx "
bx !
$end
#5000
02
#10000
12
#11000
b1011111010111100001000 )"
09
0c
0b
0a
b0 d
b0 `
0e
b0 f
b0 \
b0 S
b0 m
b0 }
b0 h
b1xxxxxxx I
b1xxxxxxx !"
b0 <
b0 i
b0 w
b0 s
b0 D
b0 Z
b0 r
b0 {
b0 j
b0 k
b0 l
b0 ""
b0 -"
b10000000 &"
b0 #"
b0 %"
0("
b0 '"
0+"
13
#15000
02
#20000
0F
b0 ;
b0 J
b0 |
b0 E
b0 M
b0 Y
b1 `
b1 f
b1 \
b1 z
b1 p
b1 o
01
0H
0:
0q
0=
b1 h
b1 G
b1 L
b1 g
0Q
0R
0n
1X
1U
b1 _
0T
0P
0N
0O
0u
0C
0[
0W
1V
b110 ]
b1100000000000000000000000000001 B
b1100000000000000000000000000001 ^
b1100000000000000000000000000001 y
12
#21000
b10000 4
b10101 5
03
#25000
02
#30000
b10 `
b10 f
b0 \
b1 S
b1 m
b1 }
b1 <
b1 i
b1 w
b1 s
b1 D
b1 Z
b1 r
b1 {
b1 j
b1 %"
b1 '"
12
#35000
02
#40000
bx E
bx M
bx Y
bx ;
bx J
bx |
1:
1F
b1 `
b1 f
b1 \
b0 S
b1100 z
b1100 p
b1100 o
b0 h
b1000001100 G
b1000001100 L
b1000001100 g
0X
0U
b1000001100 _
1u
1C
1[
0V
b1001 ]
b10 '"
b10 %"
b10 <
b10 i
b10 w
b10010000000000000000001000001100 B
b10010000000000000000001000001100 ^
b10010000000000000000001000001100 y
12
#45000
02
#50000
0F
b1011 `
b1011 f
b1011 \
b1010 z
b1010 p
b1010 o
0q
0=
0:
b1010 h
b1010 G
b1010 L
b1010 g
1X
1U
b0 E
b0 M
b0 Y
b1010 _
0u
0C
0[
1V
b0 ;
b0 J
b0 |
b110 ]
b11 <
b11 i
b11 w
b11 %"
b11 '"
b1 %
b1100000000000000000000000001010 B
b1100000000000000000000000001010 ^
b1100000000000000000000000001010 y
12
#55000
02
#60000
1a
1e
b1111 z
b111111111 p
b111111111 o
b1001 d
1R
b11111111111111111111111111111111 h
b1111111111 G
b1111111111 L
b1111111111 g
1N
0X
b11111111111111111111111111111111 _
1O
0V
b1001 `
b10000000000000000000000000001001 f
b11111111111111111111111111110101 \
b1010 S
b1010 m
b1010 }
b0 ]
b100 '"
b100 %"
b1010 s
b1010 D
b1010 Z
b1010 r
b1010 {
b1010 j
b100 <
b100 i
b100 w
b1111111111111111111111111111 B
b1111111111111111111111111111 ^
b1111111111111111111111111111 y
12
#65000
02
#70000
0e
b0 z
b10000 p
b10000 o
0R
b1000010000 G
b1000010000 L
b1000010000 g
0Q
0N
0U
b1000010000 _
0O
1u
1C
1[
0a
b0 d
b1001 `
b1001 f
b1001 \
b0 S
b1001 m
b1001 }
b0 h
b1001 ]
b101 <
b101 i
b101 w
b1001 s
b1001 D
b1001 Z
b1001 r
b1001 {
b1001 j
b1 l
b101 %"
b101 '"
b10010000000000000000001000010000 B
b10010000000000000000001000010000 ^
b10010000000000000000001000010000 y
12
#75000
02
#80000
b10010 `
b10010 f
b0 \
b1001 S
b1001 h
1X
0u
0C
0[
1W
b1000 ]
b110 '"
b110 %"
b1001 k
b110 <
b110 i
b110 w
b10000000000000000000001000010000 B
b10000000000000000000001000010000 ^
b10000000000000000000001000010000 y
12
#85000
02
#90000
b1001 `
b1001 f
b1001 \
b0 S
b1111 z
b1111 p
b1111 o
1T
b0 h
b1111 G
b1111 L
b1111 g
0X
b1111 _
0W
b1100 ]
b111 <
b111 i
b111 w
b111 %"
b111 '"
b11000000000000000000000000001111 B
b11000000000000000000000000001111 ^
b11000000000000000000000000001111 y
12
#95000
02
#100000
b1 h
b1 E
b1 M
b1 Y
b1 ;
b1 J
b1 |
1:
1F
b1100 z
b1100 p
b1100 o
0T
b1000001100 G
b1000001100 L
b1000001100 g
1X
b1000001100 _
1W
b1001 `
b1001 f
b1001 \
b1000 m
b1000 }
b1000 ]
b1000 '"
b1000 %"
b1000 s
b1000 D
b1000 Z
b1000 r
b1000 {
b1000 j
b1000 <
b1000 i
b1000 w
b10000000000000000000001000001100 B
b10000000000000000000001000001100 ^
b10000000000000000000001000001100 y
12
#105000
02
#110000
b10 d
1e
0F
b0 E
b0 M
b0 Y
b0 ;
b0 J
b0 |
b1111 z
b111111111 p
b111111111 o
01
0:
1R
b11111111111111111111111111111111 h
b1111111111 G
b1111111111 L
b1111111111 g
1U
0X
b11111111111111111111111111111111 _
1O
0W
b0 `
b10000000000000000000000000000000 f
b11111111111111111111111111111110 \
b1 S
b1 m
b1 }
b11 ]
b1001 <
b1001 i
b1001 w
b1 s
b1 D
b1 Z
b1 r
b1 {
b1 j
b1001 %"
b1001 '"
b111111111111111111111111111111 B
b111111111111111111111111111111 ^
b111111111111111111111111111111 y
12
#115000
02
#120000
b1 E
b1 M
b1 Y
b1 ;
b1 J
b1 |
1:
1F
0e
b1100 z
b1100 p
b1100 o
0R
b1000001100 G
b1000001100 L
b1000001100 g
0U
b1000001100 _
0O
1u
1C
1[
b0 h
b0 d
b10 `
b10 f
b10 \
b0 S
b10 m
b10 }
b1001 ]
b1010 '"
b1010 %"
b0 l
b10 s
b10 D
b10 Z
b10 r
b10 {
b10 j
b1010 <
b1010 i
b1010 w
b10010000000000000000001000001100 B
b10010000000000000000001000001100 ^
b10010000000000000000001000001100 y
12
#125000
02
#130000
0F
b1011 `
b1011 f
b1011 \
b0 z
b10000 p
b10000 o
01
0:
b1001 h
b1000010000 G
b1000010000 L
b1000010000 g
1X
b0 E
b0 M
b0 Y
b1000010000 _
0u
0C
0[
1W
b0 ;
b0 J
b0 |
b1000 ]
b1011 <
b1011 i
b1011 w
b1011 %"
b1011 '"
b10 %
b10000000000000000000001000010000 B
b10000000000000000000001000010000 ^
b10000000000000000000001000010000 y
12
#135000
02
#140000
1a
1e
b1111 z
b111111111 p
b111111111 o
b1000 d
1R
b11111111111111111111111111111111 h
b1111111111 G
b1111111111 L
b1111111111 g
1N
1U
0X
b11111111111111111111111111111111 _
1O
0W
b1000 `
b10000000000000000000000000001000 f
b11111111111111111111111111110110 \
b1001 S
b1001 m
b1001 }
b0 ]
b1100 '"
b1100 %"
b1001 s
b1001 D
b1001 Z
b1001 r
b1001 {
b1001 j
b1100 <
b1100 i
b1100 w
b1111111111111111111111111111 B
b1111111111111111111111111111 ^
b1111111111111111111111111111 y
12
#145000
02
#150000
0e
b0 z
b10000 p
b10000 o
0R
b1000010000 G
b1000010000 L
b1000010000 g
0Q
0N
0U
b1000010000 _
0O
1u
1C
1[
0a
b0 d
b1000 `
b1000 f
b1000 \
b0 S
b1000 m
b1000 }
b0 h
b1001 ]
b1101 <
b1101 i
b1101 w
b1000 s
b1000 D
b1000 Z
b1000 r
b1000 {
b1000 j
b1 l
b1101 %"
b1101 '"
b10010000000000000000001000010000 B
b10010000000000000000001000010000 ^
b10010000000000000000001000010000 y
12
#155000
02
#160000
b0 p
b0 o
b0 G
b0 L
b0 g
1X
1U
b0 _
0u
0C
0[
1V
b110 ]
b1110 '"
b1110 %"
b1000 k
b1110 <
b1110 i
b1110 w
b1100000000000000000000000000000 B
b1100000000000000000000000000000 ^
b1100000000000000000000000000000 y
12
#165000
02
#170000
b101 z
b101 p
b101 o
1T
b101 G
b101 L
b101 g
0X
0U
b101 _
0V
b0 `
b0 f
b0 \
b0 m
b0 }
b1100 ]
b1111 <
b1111 i
b1111 w
b0 s
b0 D
b0 Z
b0 r
b0 {
b0 j
b1111 %"
b1111 '"
b11000000000000000000000000000101 B
b11000000000000000000000000000101 ^
b11000000000000000000000000000101 y
12
#175000
02
#180000
1e
b10 S
b10 h
b10 E
b10 M
b10 Y
b10 ;
b10 J
b10 |
1:
1F
b1100 z
b1100 p
b1100 o
0T
b1000001100 G
b1000001100 L
b1000001100 g
1X
b1000001100 _
1W
b1 `
b10000000000000000000000000000001 f
b11111111111111111111111111111101 \
b11111111 m
b11111111 }
b1000 ]
b10000 '"
b10000 %"
b11111111111111111111111111111111 s
b11111111111111111111111111111111 D
b11111111111111111111111111111111 Z
b11111111111111111111111111111111 r
b11111111111111111111111111111111 {
b11111111111111111111111111111111 j
b101 <
b101 i
b101 w
b10000000000000000000001000001100 B
b10000000000000000000001000001100 ^
b10000000000000000000001000001100 y
12
#185000
02
#190000
0F
b0 E
b0 M
b0 Y
b0 ;
b0 J
b0 |
b0 S
b0 z
b10000 p
b10000 o
01
0:
b1000 h
b1000010000 G
b1000010000 L
b1000010000 g
b1000010000 _
b1010 `
0e
b1010 f
b1010 \
b10 m
b10 }
b110 <
b110 i
b110 w
b10 s
b10 D
b10 Z
b10 r
b10 {
b10 j
b10001 %"
b10001 '"
b10000000000000000000001000010000 B
b10000000000000000000001000010000 ^
b10000000000000000000001000010000 y
12
#195000
02
#200000
b1111 z
b1111 p
b1111 o
1T
b0 h
b1111 G
b1111 L
b1111 g
0X
b1111 _
0W
b1000 `
b1000 f
b1000 \
b0 S
b1000 m
b1000 }
b1100 ]
b10010 '"
b10010 %"
b1000 s
b1000 D
b1000 Z
b1000 r
b1000 {
b1000 j
b111 <
b111 i
b111 w
b11000000000000000000000000001111 B
b11000000000000000000000000001111 ^
b11000000000000000000000000001111 y
12
#205000
02
#210000
b10 S
b10 h
b10 E
b10 M
b10 Y
b10 ;
b10 J
b10 |
1:
1F
b1100 z
b1100 p
b1100 o
0T
b1000001100 G
b1000001100 L
b1000001100 g
1X
b1000001100 _
1W
b1001 `
b1001 f
b101 \
b111 m
b111 }
b1000 ]
b1000 <
b1000 i
b1000 w
b111 s
b111 D
b111 Z
b111 r
b111 {
b111 j
b10011 %"
b10011 '"
b10000000000000000000001000001100 B
b10000000000000000000001000001100 ^
b10000000000000000000001000001100 y
12
#215000
02
#220000
1e
0F
b0 E
b0 M
b0 Y
b0 ;
b0 J
b0 |
b10 S
b1111 z
b111111111 p
b111111111 o
01
0:
1R
b11111111111111111111111111111111 h
b1111111111 G
b1111111111 L
b1111111111 g
1U
0X
b11111111111111111111111111111111 _
1O
0W
b100 d
b1 `
b10000000000000000000000000000001 f
b11111111111111111111111111111101 \
b10 m
b10 }
b11 ]
b10100 '"
b10100 %"
b10 s
b10 D
b10 Z
b10 r
b10 {
b10 j
b1001 <
b1001 i
b1001 w
b111111111111111111111111111111 B
b111111111111111111111111111111 ^
b111111111111111111111111111111 y
12
#225000
02
#230000
b10 E
b10 M
b10 Y
b10 ;
b10 J
b10 |
1:
1F
0e
b1100 z
b1100 p
b1100 o
0R
b1000001100 G
b1000001100 L
b1000001100 g
0U
b1000001100 _
0O
1u
1C
1[
b0 d
b100 `
b100 f
b100 \
b0 S
b100 m
b100 }
b0 h
b1001 ]
b1010 <
b1010 i
b1010 w
b100 s
b100 D
b100 Z
b100 r
b100 {
b100 j
b0 l
b10101 %"
b10101 '"
b10010000000000000000001000001100 B
b10010000000000000000001000001100 ^
b10010000000000000000001000001100 y
12
#235000
02
#240000
0F
b1100 `
b1100 f
b1100 \
b0 z
b10000 p
b10000 o
01
0:
b1000 h
b1000010000 G
b1000010000 L
b1000010000 g
1X
b1000010000 _
0u
0C
0[
1W
b0 E
b0 M
b0 Y
b1000 ]
b0 ;
b0 J
b0 |
b10110 '"
b10110 %"
b1011 <
b1011 i
b1011 w
b10000000000000000000001000010000 B
b10000000000000000000001000010000 ^
b10000000000000000000001000010000 y
b100 %
12
#245000
02
#250000
1a
1e
b1111 z
b111111111 p
b111111111 o
b111 d
1R
b11111111111111111111111111111111 h
b1111111111 G
b1111111111 L
b1111111111 g
1N
1U
0X
b11111111111111111111111111111111 _
1O
0W
b111 `
b10000000000000000000000000000111 f
b11111111111111111111111111110111 \
b1000 S
b1000 m
b1000 }
b0 ]
b1100 <
b1100 i
b1100 w
b1000 s
b1000 D
b1000 Z
b1000 r
b1000 {
b1000 j
b10111 %"
b10111 '"
b1111111111111111111111111111 B
b1111111111111111111111111111 ^
b1111111111111111111111111111 y
12
#255000
02
#260000
0e
b0 z
b10000 p
b10000 o
0R
b1000010000 G
b1000010000 L
b1000010000 g
0Q
0N
0U
b1000010000 _
0O
1u
1C
1[
b0 h
0a
b0 d
b111 `
b111 f
b111 \
b0 S
b111 m
b111 }
b1001 ]
b11000 '"
b11000 %"
b1 l
b111 s
b111 D
b111 Z
b111 r
b111 {
b111 j
b1101 <
b1101 i
b1101 w
b10010000000000000000001000010000 B
b10010000000000000000001000010000 ^
b10010000000000000000001000010000 y
12
#265000
02
#270000
b0 p
b0 o
b0 G
b0 L
b0 g
1X
1U
b0 _
0u
0C
0[
1V
b110 ]
b1110 <
b1110 i
b1110 w
b111 k
b11001 %"
b11001 '"
b1100000000000000000000000000000 B
b1100000000000000000000000000000 ^
b1100000000000000000000000000000 y
12
#275000
02
#280000
b101 z
b101 p
b101 o
1T
b101 G
b101 L
b101 g
0X
0U
b101 _
0V
b0 `
b0 f
b0 \
b0 m
b0 }
b1100 ]
b11010 '"
b11010 %"
b0 s
b0 D
b0 Z
b0 r
b0 {
b0 j
b1111 <
b1111 i
b1111 w
b11000000000000000000000000000101 B
b11000000000000000000000000000101 ^
b11000000000000000000000000000101 y
12
#285000
02
#290000
1e
b100 S
b100 h
b100 E
b100 M
b100 Y
b100 ;
b100 J
b100 |
1:
1F
b1100 z
b1100 p
b1100 o
0T
b1000001100 G
b1000001100 L
b1000001100 g
1X
b1000001100 _
1W
b11 `
b10000000000000000000000000000011 f
b11111111111111111111111111111011 \
b11111111 m
b11111111 }
b1000 ]
b101 <
b101 i
b101 w
b11111111111111111111111111111111 s
b11111111111111111111111111111111 D
b11111111111111111111111111111111 Z
b11111111111111111111111111111111 r
b11111111111111111111111111111111 {
b11111111111111111111111111111111 j
b11011 %"
b11011 '"
b10000000000000000000001000001100 B
b10000000000000000000001000001100 ^
b10000000000000000000001000001100 y
12
#295000
02
#300000
0F
b0 E
b0 M
b0 Y
b0 ;
b0 J
b0 |
b0 z
b10000 p
b10000 o
01
0:
b111 h
b1000010000 G
b1000010000 L
b1000010000 g
b1000010000 _
b1011 `
0e
b1011 f
b11 \
b100 m
b100 }
b11100 '"
b11100 %"
b100 s
b100 D
b100 Z
b100 r
b100 {
b100 j
b110 <
b110 i
b110 w
b10000000000000000000001000010000 B
b10000000000000000000001000010000 ^
b10000000000000000000001000010000 y
12
#305000
02
#310000
b1111 z
b1111 p
b1111 o
1T
b0 h
b1111 G
b1111 L
b1111 g
0X
b1111 _
0W
b111 `
b111 f
b111 \
b0 S
b111 m
b111 }
b1100 ]
b111 <
b111 i
b111 w
b111 s
b111 D
b111 Z
b111 r
b111 {
b111 j
b11101 %"
b11101 '"
b11000000000000000000000000001111 B
b11000000000000000000000000001111 ^
b11000000000000000000000000001111 y
12
#315000
02
#320000
b100 S
b100 h
b100 E
b100 M
b100 Y
b100 ;
b100 J
b100 |
1:
1F
b1100 z
b1100 p
b1100 o
0T
b1000001100 G
b1000001100 L
b1000001100 g
1X
b1000001100 _
1W
b1010 `
b1010 f
b10 \
b110 m
b110 }
b1000 ]
b11110 '"
b11110 %"
b110 s
b110 D
b110 Z
b110 r
b110 {
b110 j
b1000 <
b1000 i
b1000 w
b10000000000000000000001000001100 B
b10000000000000000000001000001100 ^
b10000000000000000000001000001100 y
12
#325000
02
#330000
1e
0F
b0 E
b0 M
b0 Y
b0 ;
b0 J
b0 |
b100 S
b1111 z
b111111111 p
b111111111 o
01
0:
1R
b11111111111111111111111111111111 h
b1111111111 G
b1111111111 L
b1111111111 g
1U
0X
b11111111111111111111111111111111 _
1O
0W
b1000 d
b11 `
b10000000000000000000000000000011 f
b11111111111111111111111111111011 \
b100 m
b100 }
b11 ]
b1001 <
b1001 i
b1001 w
b100 s
b100 D
b100 Z
b100 r
b100 {
b100 j
b11111 %"
b11111 '"
b111111111111111111111111111111 B
b111111111111111111111111111111 ^
b111111111111111111111111111111 y
12
#335000
02
#340000
b100 E
b100 M
b100 Y
b100 ;
b100 J
b100 |
1:
1F
0e
b1100 z
b1100 p
b1100 o
0R
b1000001100 G
b1000001100 L
b1000001100 g
0U
b1000001100 _
0O
1u
1C
1[
b0 h
b0 d
b1000 `
b1000 f
b1000 \
b0 S
b1000 m
b1000 }
b1001 ]
b100000 '"
b100000 %"
b0 l
b1000 s
b1000 D
b1000 Z
b1000 r
b1000 {
b1000 j
b1010 <
b1010 i
b1010 w
b10010000000000000000001000001100 B
b10010000000000000000001000001100 ^
b10010000000000000000001000001100 y
12
#345000
02
#350000
0F
b1111 `
b1111 f
b1111 \
b0 z
b10000 p
b10000 o
01
0:
b111 h
b1000010000 G
b1000010000 L
b1000010000 g
1X
b0 E
b0 M
b0 Y
b1000010000 _
0u
0C
0[
1W
b0 ;
b0 J
b0 |
b1000 ]
b1011 <
b1011 i
b1011 w
b100001 %"
b100001 '"
b1000 %
b10000000000000000000001000010000 B
b10000000000000000000001000010000 ^
b10000000000000000000001000010000 y
12
#355000
02
#360000
1a
1e
b1111 z
b111111111 p
b111111111 o
b110 d
1R
b11111111111111111111111111111111 h
b1111111111 G
b1111111111 L
b1111111111 g
1N
1U
0X
b11111111111111111111111111111111 _
1O
0W
b110 `
b10000000000000000000000000000110 f
b11111111111111111111111111111000 \
b111 S
b111 m
b111 }
b0 ]
b100010 '"
b100010 %"
b111 s
b111 D
b111 Z
b111 r
b111 {
b111 j
b1100 <
b1100 i
b1100 w
b1111111111111111111111111111 B
b1111111111111111111111111111 ^
b1111111111111111111111111111 y
12
#365000
02
#370000
0e
b0 z
b10000 p
b10000 o
0R
b1000010000 G
b1000010000 L
b1000010000 g
0Q
0N
0U
b1000010000 _
0O
1u
1C
1[
0a
b0 d
b110 `
b110 f
b110 \
b0 S
b110 m
b110 }
b0 h
b1001 ]
b1101 <
b1101 i
b1101 w
b110 s
b110 D
b110 Z
b110 r
b110 {
b110 j
b1 l
b100011 %"
b100011 '"
b10010000000000000000001000010000 B
b10010000000000000000001000010000 ^
b10010000000000000000001000010000 y
12
#375000
02
#380000
b0 p
b0 o
b0 G
b0 L
b0 g
1X
1U
b0 _
0u
0C
0[
1V
b110 ]
b100100 '"
b100100 %"
b110 k
b1110 <
b1110 i
b1110 w
b1100000000000000000000000000000 B
b1100000000000000000000000000000 ^
b1100000000000000000000000000000 y
12
#385000
02
#390000
b101 z
b101 p
b101 o
1T
b101 G
b101 L
b101 g
0X
0U
b101 _
0V
b0 `
b0 f
b0 \
b0 m
b0 }
b1100 ]
b1111 <
b1111 i
b1111 w
b0 s
b0 D
b0 Z
b0 r
b0 {
b0 j
b100101 %"
b100101 '"
b11000000000000000000000000000101 B
b11000000000000000000000000000101 ^
b11000000000000000000000000000101 y
12
#395000
02
#400000
1e
b1000 S
b1000 h
b1000 E
b1000 M
b1000 Y
b1000 ;
b1000 J
b1000 |
1:
1F
b1100 z
b1100 p
b1100 o
0T
b1000001100 G
b1000001100 L
b1000001100 g
1X
b1000001100 _
1W
b111 `
b10000000000000000000000000000111 f
b11111111111111111111111111110111 \
b11111111 m
b11111111 }
b1000 ]
b100110 '"
b100110 %"
b11111111111111111111111111111111 s
b11111111111111111111111111111111 D
b11111111111111111111111111111111 Z
b11111111111111111111111111111111 r
b11111111111111111111111111111111 {
b11111111111111111111111111111111 j
b101 <
b101 i
b101 w
b10000000000000000000001000001100 B
b10000000000000000000001000001100 ^
b10000000000000000000001000001100 y
12
#405000
02
#410000
0F
b0 E
b0 M
b0 Y
b0 ;
b0 J
b0 |
b0 S
b0 z
b10000 p
b10000 o
01
0:
b110 h
b1000010000 G
b1000010000 L
b1000010000 g
b1000010000 _
b1110 `
0e
b1110 f
b1110 \
b1000 m
b1000 }
b110 <
b110 i
b110 w
b1000 s
b1000 D
b1000 Z
b1000 r
b1000 {
b1000 j
b100111 %"
b100111 '"
b10000000000000000000001000010000 B
b10000000000000000000001000010000 ^
b10000000000000000000001000010000 y
12
#415000
02
#420000
b1111 z
b1111 p
b1111 o
1T
b0 h
b1111 G
b1111 L
b1111 g
0X
b1111 _
0W
b110 `
b110 f
b110 \
b0 S
b110 m
b110 }
b1100 ]
b101000 '"
b101000 %"
b110 s
b110 D
b110 Z
b110 r
b110 {
b110 j
b111 <
b111 i
b111 w
b11000000000000000000000000001111 B
b11000000000000000000000000001111 ^
b11000000000000000000000000001111 y
12
#425000
02
#430000
b1000 h
b1000 E
b1000 M
b1000 Y
b1000 ;
b1000 J
b1000 |
1:
1F
b1100 z
b1100 p
b1100 o
0T
b1000001100 G
b1000001100 L
b1000001100 g
1X
b1000001100 _
1W
b1101 `
b1101 f
b1101 \
b101 m
b101 }
b1000 ]
b1000 <
b1000 i
b1000 w
b101 s
b101 D
b101 Z
b101 r
b101 {
b101 j
b101001 %"
b101001 '"
b10000000000000000000001000001100 B
b10000000000000000000001000001100 ^
b10000000000000000000001000001100 y
12
#435000
02
#440000
1e
0F
b0 E
b0 M
b0 Y
b0 ;
b0 J
b0 |
b1111 z
b111111111 p
b111111111 o
01
0:
1R
b11111111111111111111111111111111 h
b1111111111 G
b1111111111 L
b1111111111 g
1U
0X
b11111111111111111111111111111111 _
1O
0W
b10000 d
b111 `
b10000000000000000000000000000111 f
b11111111111111111111111111110111 \
b1000 S
b1000 m
b1000 }
b11 ]
b101010 '"
b101010 %"
b1000 s
b1000 D
b1000 Z
b1000 r
b1000 {
b1000 j
b1001 <
b1001 i
b1001 w
b111111111111111111111111111111 B
b111111111111111111111111111111 ^
b111111111111111111111111111111 y
12
#445000
02
#450000
b1000 E
b1000 M
b1000 Y
b1000 ;
b1000 J
b1000 |
1:
1F
0e
b1100 z
b1100 p
b1100 o
0R
b1000001100 G
b1000001100 L
b1000001100 g
0U
b1000001100 _
0O
1u
1C
1[
b0 d
b10000 `
b10000 f
b10000 \
b0 S
b10000 m
b10000 }
b0 h
b1001 ]
b1010 <
b1010 i
b1010 w
b10000 s
b10000 D
b10000 Z
b10000 r
b10000 {
b10000 j
b0 l
b101011 %"
b101011 '"
b10010000000000000000001000001100 B
b10010000000000000000001000001100 ^
b10010000000000000000001000001100 y
12
#455000
02
#460000
0F
b10110 `
b10110 f
b10110 \
b0 z
b10000 p
b10000 o
01
0:
b110 h
b1000010000 G
b1000010000 L
b1000010000 g
1X
b1000010000 _
0u
0C
0[
1W
b0 E
b0 M
b0 Y
b1000 ]
b0 ;
b0 J
b0 |
b101100 '"
b101100 %"
b1011 <
b1011 i
b1011 w
b10000000000000000000001000010000 B
b10000000000000000000001000010000 ^
b10000000000000000000001000010000 y
b10000 %
12
#465000
02
#470000
1a
1e
b1111 z
b111111111 p
b111111111 o
b101 d
1R
b11111111111111111111111111111111 h
b1111111111 G
b1111111111 L
b1111111111 g
1N
1U
0X
b11111111111111111111111111111111 _
1O
0W
b101 `
b10000000000000000000000000000101 f
b11111111111111111111111111111001 \
b110 S
b110 m
b110 }
b0 ]
b1100 <
b1100 i
b1100 w
b110 s
b110 D
b110 Z
b110 r
b110 {
b110 j
b101101 %"
b101101 '"
b1111111111111111111111111111 B
b1111111111111111111111111111 ^
b1111111111111111111111111111 y
12
#475000
02
