23-09/l2_code/top.vcd
$date
	Mon Sep 23 16:09:23 2019
$end
$version
	Icarus Verilog
$end
$timescale
	1ps
$end
$scope module top_tb $end
$var wire 1 ! data_out_valid $end
$var wire 32 " data_out [31:0] $end
$var reg 1 # clk $end
$var reg 8 $ data_in [7:0] $end
$var reg 1 % data_in_valid $end
$var reg 32 & data_out_ref [31:0] $end
$var reg 1 ' rst $end
$var integer 32 ( i [31:0] $end
$scope module uut $end
$var wire 1 # clk $end
$var wire 8 ) data_in [7:0] $end
$var wire 1 % data_in_valid $end
$var wire 32 * data_out [31:0] $end
$var wire 1 ! data_out_valid $end
$var wire 1 ' rst $end
$var wire 1 + reg_en $end
$var wire 32 , reg_data_out [31:0] $end
$var wire 32 - reg_data_in [31:0] $end
$var wire 2 . count [1:0] $end
$var wire 1 / cnt_rst $end
$var wire 1 0 cnt_en $end
$scope module cnt $end
$var wire 1 # clk $end
$var wire 1 / rst $end
$var wire 1 0 en $end
$var reg 2 1 data_out [1:0] $end
$upscope $end
$scope module controler $end
$var wire 1 # clk $end
$var wire 2 2 cnt_data [1:0] $end
$var wire 1 0 cnt_en $end
$var wire 1 / cnt_rst $end
$var wire 1 % data_in_valid $end
$var wire 1 + reg_en $end
$var wire 1 ' rst $end
$var reg 1 3 state $end
$var reg 1 4 state_nxt $end
$upscope $end
$scope module preg $end
$var wire 1 # clk $end
$var wire 32 5 data_in [31:0] $end
$var wire 1 + en $end
$var reg 32 6 data_out [31:0] $end
$upscope $end
$upscope $end
$upscope $end
$enddefinitions $end
#0
$dumpvars
bx 6
bx 5
04
03
bx 2
bx 1
00
0/
bx .
bx -
bx ,
x+
bx *
bx )
bx (
1'
bx &
0%
bx $
1#
bx "
0!
$end
#5000
0#
#10000
1#
#15000
0#
#20000
1#
#25000
0#
#30000
1#
#35000
0#
#40000
1#
#45000
0#
#50000
1#
#50100
b10 -
b10 5
1+
14
b10000 &
1!
1/
1%
b10 $
b10 )
b0 (
0'
#55000
0#
#60000
10
b0 .
b0 1
b0 2
b10 "
b10 *
b10 ,
b10 6
13
1#
#60100
b100 -
b100 5
0!
0/
0%
#65000
0#
#70000
b1000 -
b1000 5
b100 "
b100 *
b100 ,
b100 6
b1 .
b1 1
b1 2
1#
#75000
0#
#80000
b10000 -
b10000 5
b10 .
b10 1
b10 2
b1000 "
b1000 *
b1000 ,
b1000 6
1#
#85000
0#
#90000
b100000 -
b100000 5
0+
b10000 "
b10000 *
b10000 ,
b10000 6
b11 .
b11 1
b11 2
1#
#95000
0#
#100000
1#
#105000
0#
#110000
1#
#110100
1+
b11 -
b11 5
b1010001 &
1!
1/
1%
b1 (
b11 $
b11 )
#115000
0#
#120000
b0 .
b0 1
b0 2
b11 "
b11 *
b11 ,
b11 6
1#
#120100
b1001 -
b1001 5
0!
0/
0%
#125000
0#
#130000
b11011 -
b11011 5
b1001 "
b1001 *
b1001 ,
b1001 6
b1 .
b1 1
b1 2
1#
#135000
0#
#140000
b1010001 -
b1010001 5
b10 .
b10 1
b10 2
b11011 "
b11011 *
b11011 ,
b11011 6
1#
#145000
0#
#150000
b11110011 -
b11110011 5
0+
b1010001 "
b1010001 *
b1010001 ,
b1010001 6
b11 .
b11 1
b11 2
1#
#155000
0#
#160000
1#
#165000
0#
#170000
1#
#170100
1+
b100 -
b100 5
b100000000 &
1!
1/
1%
b10 (
b100 $
b100 )
#175000
0#
#180000
b0 .
b0 1
b0 2
b100 "
b100 *
b100 ,
b100 6
1#
#180100
b10000 -
b10000 5
0!
0/
0%
#185000
0#
#190000
b1000000 -
b1000000 5
b10000 "
b10000 *
b10000 ,
b10000 6
b1 .
b1 1
b1 2
1#
#195000
0#
#200000
b100000000 -
b100000000 5
b10 .
b10 1
b10 2
b1000000 "
b1000000 *
b1000000 ,
b1000000 6
1#
#205000
0#
#210000
b10000000000 -
b10000000000 5
0+
b100000000 "
b100000000 *
b100000000 ,
b100000000 6
b11 .
b11 1
b11 2
1#
#215000
0#
#220000
1#
#225000
0#
#230000
1#
#230100
1+
b101 -
b101 5
b1001110001 &
1!
1/
1%
b11 (
b101 $
b101 )
#235000
0#
#240000
b0 .
b0 1
b0 2
b101 "
b101 *
b101 ,
b101 6
1#
#240100
b11001 -
b11001 5
0!
0/
0%
#245000
0#
#250000
b1111101 -
b1111101 5
b11001 "
b11001 *
b11001 ,
b11001 6
b1 .
b1 1
b1 2
1#
#255000
0#
#260000
b1001110001 -
b1001110001 5
b10 .
b10 1
b10 2
b1111101 "
b1111101 *
b1111101 ,
b1111101 6
1#
#265000
0#
#270000
b110000110101 -
b110000110101 5
0+
b1001110001 "
b1001110001 *
b1001110001 ,
b1001110001 6
b11 .
b11 1
b11 2
1#
#275000
0#
#280000
1#
#285000
0#
#290000
1#
#290100
1+
b110 -
b110 5
b10100010000 &
1!
1/
1%
b100 (
b110 $
b110 )
#295000
0#
#300000
b0 .
b0 1
b0 2
b110 "
b110 *
b110 ,
b110 6
1#
#300100
b100100 -
b100100 5
0!
0/
0%
#305000
0#
#310000
b11011000 -
b11011000 5
b100100 "
b100100 *
b100100 ,
b100100 6
b1 .
b1 1
b1 2
1#
#315000
0#
#320000
b10100010000 -
b10100010000 5
b10 .
b10 1
b10 2
b11011000 "
b11011000 *
b11011000 ,
b11011000 6
1#
#325000
0#
#330000
b1111001100000 -
b1111001100000 5
0+
b10100010000 "
b10100010000 *
b10100010000 ,
b10100010000 6
b11 .
b11 1
b11 2
1#
#335000
0#
#340000
1#
#345000
0#
#350000
1#
#350100
1+
b111 -
b111 5
b100101100001 &
1!
1/
1%
b101 (
b111 $
b111 )
#355000
0#
#360000
b0 .
b0 1
b0 2
b111 "
b111 *
b111 ,
b111 6
1#
#360100
b110001 -
b110001 5
0!
0/
0%
#365000
0#
#370000
b101010111 -
b101010111 5
b110001 "
b110001 *
b110001 ,
b110001 6
b1 .
b1 1
b1 2
1#
#375000
0#
#380000
b100101100001 -
b100101100001 5
b10 .
b10 1
b10 2
b101010111 "
b101010111 *
b101010111 ,
b101010111 6
1#
#385000
0#
#390000
b100000110100111 -
b100000110100111 5
0+
b100101100001 "
b100101100001 *
b100101100001 ,
b100101100001 6
b11 .
b11 1
b11 2
1#
#395000
0#
#400000
1#
#405000
0#
#410000
1#
#410100
1+
b1000 -
b1000 5
b1000000000000 &
1!
1/
1%
b110 (
b1000 $
b1000 )
#415000
0#
#420000
b0 .
b0 1
b0 2
b1000 "
b1000 *
b1000 ,
b1000 6
1#
#420100
b1000000 -
b1000000 5
0!
0/
0%
#425000
0#
#430000
b1000000000 -
b1000000000 5
b1000000 "
b1000000 *
b1000000 ,
b1000000 6
b1 .
b1 1
b1 2
1#
#435000
0#
#440000
b1000000000000 -
b1000000000000 5
b10 .
b10 1
b10 2
b1000000000 "
b1000000000 *
b1000000000 ,
b1000000000 6
1#
#445000
0#
#450000
b1000000000000000 -
b1000000000000000 5
0+
b1000000000000 "
b1000000000000 *
b1000000000000 ,
b1000000000000 6
b11 .
b11 1
b11 2
1#
#455000
0#
#460000
1#
#465000
0#
#470000
1#
#470100
1+
b1001 -
b1001 5
b1100110100001 &
1!
1/
1%
b111 (
b1001 $
b1001 )
#475000
0#
#480000
b0 .
b0 1
b0 2
b1001 "
b1001 *
b1001 ,
b1001 6
1#
#480100
b1010001 -
b1010001 5
0!
0/
0%
#485000
0#
#490000
b1011011001 -
b1011011001 5
b1010001 "
b1010001 *
b1010001 ,
b1010001 6
b1 .
b1 1
b1 2
1#
#495000
0#
#500000
b1100110100001 -
b1100110100001 5
b10 .
b10 1
b10 2
b1011011001 "
b1011011001 *
b1011011001 ,
b1011011001 6
1#
#505000
0#
#510000
b1110011010101001 -
b1110011010101001 5
0+
b1100110100001 "
b1100110100001 *
b1100110100001 ,
b1100110100001 6
b11 .
b11 1
b11 2
1#
#515000
0#
#520000
1#
#525000
0#
#530000
1#
#530100
1+
b1010 -
b1010 5
b10011100010000 &
1!
1/
1%
b1000 (
b1010 $
b1010 )
#535000
0#
#540000
b0 .
b0 1
b0 2
b1010 "
b1010 *
b1010 ,
b1010 6
1#
#540100
b1100100 -
b1100100 5
0!
0/
0%
#545000
0#
#550000
b1111101000 -
b1111101000 5
b1100100 "
b1100100 *
b1100100 ,
b1100100 6
b1 .
b1 1
b1 2
1#
#555000
0#
#560000
b10011100010000 -
b10011100010000 5
b10 .
b10 1
b10 2
b1111101000 "
b1111101000 *
b1111101000 ,
b1111101000 6
1#
#565000
0#
#570000
b11000011010100000 -
b11000011010100000 5
0+
b10011100010000 "
b10011100010000 *
b10011100010000 ,
b10011100010000 6
b11 .
b11 1
b11 2
1#
#575000
0#
#580000
1#
#585000
0#
#590000
1#
#590100
1+
b1011 -
b1011 5
b11100100110001 &
1!
1/
1%
b1001 (
b1011 $
b1011 )
#595000
0#
#600000
b0 .
b0 1
b0 2
b1011 "
b1011 *
b1011 ,
b1011 6
1#
#600100
b1111001 -
b1111001 5
0!
0/
0%
#605000
0#
#610000
b10100110011 -
b10100110011 5
b1111001 "
b1111001 *
b1111001 ,
b1111001 6
b1 .
b1 1
b1 2
1#
#615000
0#
#620000
b11100100110001 -
b11100100110001 5
b10 .
b10 1
b10 2
b10100110011 "
b10100110011 *
b10100110011 ,
b10100110011 6
1#
#625000
0#
#630000
b100111010100011011 -
b100111010100011011 5
0+
b11100100110001 "
b11100100110001 *
b11100100110001 ,
b11100100110001 6
b11 .
b11 1
b11 2
1#
#635000
0#
#640000
1#
#645000
0#
#650000
1#
#650100
b0 -
b0 5
b1010 (
b0 $
b0 )
